{
  "Objects": {
    "dm_camel": {
      "MapSettings": {
        "Author": "proto",
        "Seed": 0,
        "Generate": false,
        "Mirror": true,
        "Width": 3,
        "Height": 5,
        "Scale": {
          "x": 3.0,
          "y": 2.0,
          "z": 2.0
        },
        "AmbientSound": 3,
        "PlatformsTexture": "DetailRockHermes",
        "NormalTexture": "DetailRock_normals",
        "DetailTexture": "DetailRockHermes",
        "DetailNormalTexture": "DetailRockHermes",
        "TextureScale": 0.3,
        "NormalTextureScale": 0.3,
        "DetailTextureScale": 0.3,
        "DetailNormalTextureScale": 0.3,
        "DetailImpact": 0.465847,
        "DetailGradientTexture": "DetailGradient2",
        "PlatformsColor": "524535FF",
        "DetailColor": "287277FF",
        "BackColor": "59763DFF",
        "BackDimColor": "6F108AFF",
        "FadeColor": "3F392CFF",
        "Fog": true,
        "FogColor": "E8DD80FF",
        "FogDistance": 1.266951,
        "SkyColor": "A39468FF",
        "SkyColor2": "C8BE62FF",
        "SkyGradientScale": 0.058459,
        "SkyGradientOffset": -0.006646,
        "SkyGradientRotation": 0.0,
        "BackColorHeightOffset": 0.0,
        "BackColorHeightScale": 1.0,
        "EffectsColor": "68411FFF",
        "SunLightColor": "FFAA40FF",
        "SunIntensityShift": -0.037092,
        "SunHorizontalAngle": 188.4142,
        "SunVerticalAngle": 90.38484,
        "HueShift": 0.0,
        "SaturationShift": 0.0,
        "BrightnessShift": 0.0,
        "TopBarrierHeight": 0.0,
        "GlobalPosition": {
          "x": -0.0208,
          "y": -4.5203,
          "z": 0.0
        },
        "GlobalScale": {
          "x": 1.0,
          "y": 1.0,
          "z": 1.0
        }
      },
      "MapBoundsHandling": {
        "DestroyObjectsOutOfBoundsBottom": true,
        "DestroyObjectsOutOfBoundsTop": false,
        "DestroyObjectsOutOfBoundsLeft": false,
        "DestroyObjectsOutOfBoundsRight": false,
        "CollideObjectsOutOfBoundsBottom": true,
        "CollideObjectsOutOfBoundsTop": true,
        "CollideObjectsOutOfBoundsLeft": true,
        "CollideObjectsOutOfBoundsRight": true
      },
      "MapObjects": {
        "Objects": [
          {
            "Prefab": "protoshape",
            "Position": {
              "x": 24.5407,
              "y": 19.2922,
              "z": -9.5477
            },
            "Rotation": {
              "x": 0.0,
              "y": 0.0,
              "z": 0.0
            },
            "Scale": {
              "x": 1.0,
              "y": 1.0,
              "z": 1.0
            },
            "MapProp": {
              "Type": 0,
              "Color": "FFFFFFFF",
              "Mirror": true,
              "Material": 2
            },
            "ProtoshapeEdit": {
              "Type": 0,
              "Points": [
                {
                  "x": 38.5218,
                  "y": -2.97176,
                  "uvx": 0.0,
                  "uvy": 0.0,
                  "Color": "FFFFFFFF"
                },
                {
                  "x": 38.85471,
                  "y": -6.947407,
                  "uvx": 0.0,
                  "uvy": 0.0,
                  "Color": "FFFFFFFF"
                },
                {
                  "x": 38.72007,
                  "y": -24.63295,
                  "uvx": 0.0,
                  "uvy": 0.0,
                  "Color": "FFFFFFFF"
                },
                {
                  "x": -28.30202,
                  "y": -24.31261,
                  "uvx": 0.0,
                  "uvy": 0.0,
                  "Color": "FFFFFFFF"
                },
                {
                  "x": -29.14643,
                  "y": 56.5525,
                  "uvx": 0.0,
                  "uvy": 0.0,
                  "Color": "FFFFFFFF"
                },
                {
                  "x": 38.9006,
                  "y": 59.70348,
                  "uvx": 0.0,
                  "uvy": 0.0,
                  "Color": "FFFFFFFF"
                },
                {
                  "x": 38.63829,
                  "y": 40.50683,
                  "uvx": 0.0,
                  "uvy": 0.0,
                  "Color": "FFFFFFFF"
                },
                {
                  "x": 38.65283,
                  "y": 28.91402,
                  "uvx": 0.0,
                  "uvy": 0.0,
                  "Color": "FFFFFFFF"
                },
                {
                  "x": 36.83791,
                  "y": 28.80565,
                  "uvx": 0.0,
                  "uvy": 0.0,
                  "Color": "FFFFFFFF"
                },
                {
                  "x": 35.52259,
                  "y": 28.42985,
                  "uvx": 0.0,
                  "uvy": 0.0,
                  "Color": "FFFFFFFF"
                },
                {
                  "x": 34.22815,
                  "y": 27.76174,
                  "uvx": 0.0,
                  "uvy": 0.0,
                  "Color": "FFFFFFFF"
                },
                {
                  "x": 33.01722,
                  "y": 26.82224,
                  "uvx": 0.0,
                  "uvy": 0.0,
                  "Color": "FFFFFFFF"
                },
                {
                  "x": 32.18209,
                  "y": 25.73657,
                  "uvx": 0.0,
                  "uvy": 0.0,
                  "Color": "FFFFFFFF"
                },
                {
                  "x": 31.45137,
                  "y": 24.48389,
                  "uvx": 0.0,
                  "uvy": 0.0,
                  "Color": "FFFFFFFF"
                },
                {
                  "x": 30.78326,
                  "y": 23.16857,
                  "uvx": 0.0,
                  "uvy": 0.0,
                  "Color": "FFFFFFFF"
                },
                {
                  "x": 30.03165,
                  "y": 22.06203,
                  "uvx": 0.0,
                  "uvy": 0.0,
                  "Color": "FFFFFFFF"
                },
                {
                  "x": 29.09214,
                  "y": 21.10164,
                  "uvx": 0.0,
                  "uvy": 0.0,
                  "Color": "FFFFFFFF"
                },
                {
                  "x": 27.96473,
                  "y": 20.41267,
                  "uvx": 0.0,
                  "uvy": 0.0,
                  "Color": "FFFFFFFF"
                },
                {
                  "x": 26.65509,
                  "y": 20.06662,
                  "uvx": 0.0,
                  "uvy": 0.0,
                  "Color": "FFFFFFFF"
                },
                {
                  "x": 25.33978,
                  "y": 20.19189,
                  "uvx": 0.0,
                  "uvy": 0.0,
                  "Color": "FFFFFFFF"
                },
                {
                  "x": 23.9827,
                  "y": 20.67209,
                  "uvx": 0.0,
                  "uvy": 0.0,
                  "Color": "FFFFFFFF"
                },
                {
                  "x": 22.83441,
                  "y": 21.4237,
                  "uvx": 0.0,
                  "uvy": 0.0,
                  "Color": "FFFFFFFF"
                },
                {
                  "x": 21.80407,
                  "y": 22.4744,
                  "uvx": 0.0,
                  "uvy": 0.0,
                  "Color": "FFFFFFFF"
                },
                {
                  "x": 20.40591,
                  "y": 25.32162,
                  "uvx": 0.0,
                  "uvy": 0.0,
                  "Color": "FFFFFFFF"
                },
                {
                  "x": 19.66586,
                  "y": 27.18658,
                  "uvx": 0.0,
                  "uvy": 0.0,
                  "Color": "FFFFFFFF"
                },
                {
                  "x": 18.71857,
                  "y": 28.78511,
                  "uvx": 0.0,
                  "uvy": 0.0,
                  "Color": "FFFFFFFF"
                },
                {
                  "x": 17.65288,
                  "y": 29.93961,
                  "uvx": 0.0,
                  "uvy": 0.0,
                  "Color": "FFFFFFFF"
                },
                {
                  "x": 16.17276,
                  "y": 31.21252,
                  "uvx": 0.0,
                  "uvy": 0.0,
                  "Color": "FFFFFFFF"
                },
                {
                  "x": 14.45581,
                  "y": 32.219,
                  "uvx": 0.0,
                  "uvy": 0.0,
                  "Color": "FFFFFFFF"
                },
                {
                  "x": 13.35684,
                  "y": 32.80486,
                  "uvx": 0.0,
                  "uvy": 0.0,
                  "Color": "FFFFFFFF"
                },
                {
                  "x": 12.23227,
                  "y": 33.17516,
                  "uvx": 0.0,
                  "uvy": 0.0,
                  "Color": "FFFFFFFF"
                },
                {
                  "x": 10.63709,
                  "y": 33.3735,
                  "uvx": 0.0,
                  "uvy": 0.0,
                  "Color": "FFFFFFFF"
                },
                {
                  "x": 8.535309,
                  "y": 33.43271,
                  "uvx": 0.0,
                  "uvy": 0.0,
                  "Color": "FFFFFFFF"
                },
                {
                  "x": 6.640743,
                  "y": 33.31429,
                  "uvx": 0.0,
                  "uvy": 0.0,
                  "Color": "FFFFFFFF"
                },
                {
                  "x": 4.953402,
                  "y": 32.87026,
                  "uvx": 0.0,
                  "uvy": 0.0,
                  "Color": "FFFFFFFF"
                },
                {
                  "x": 3.443672,
                  "y": 32.30782,
                  "uvx": 0.0,
                  "uvy": 0.0,
                  "Color": "FFFFFFFF"
                },
                {
                  "x": 1.776478,
                  "y": 31.2625,
                  "uvx": 0.0,
                  "uvy": 0.0,
                  "Color": "FFFFFFFF"
                },
                {
                  "x": 0.564859,
                  "y": 30.11465,
                  "uvx": 0.0,
                  "uvy": 0.0,
                  "Color": "FFFFFFFF"
                },
                {
                  "x": -0.423573,
                  "y": 28.7436,
                  "uvx": 0.0,
                  "uvy": 0.0,
                  "Color": "FFFFFFFF"
                },
                {
                  "x": -1.316347,
                  "y": 27.24501,
                  "uvx": 0.0,
                  "uvy": 0.0,
                  "Color": "FFFFFFFF"
                },
                {
                  "x": -1.826506,
                  "y": 25.52323,
                  "uvx": 0.0,
                  "uvy": 0.0,
                  "Color": "FFFFFFFF"
                },
                {
                  "x": -2.204277,
                  "y": 24.35715,
                  "uvx": 0.0,
                  "uvy": 0.0,
                  "Color": "FFFFFFFF"
                },
                {
                  "x": -2.701225,
                  "y": 23.51616,
                  "uvx": 0.0,
                  "uvy": 0.0,
                  "Color": "FFFFFFFF"
                },
                {
                  "x": -3.389311,
                  "y": 22.82808,
                  "uvx": 0.0,
                  "uvy": 0.0,
                  "Color": "FFFFFFFF"
                },
                {
                  "x": -4.268526,
                  "y": 22.40759,
                  "uvx": 0.0,
                  "uvy": 0.0,
                  "Color": "FFFFFFFF"
                },
                {
                  "x": -5.243309,
                  "y": 22.35024,
                  "uvx": 0.0,
                  "uvy": 0.0,
                  "Color": "FFFFFFFF"
                },
                {
                  "x": -6.198978,
                  "y": 22.52227,
                  "uvx": 0.0,
                  "uvy": 0.0,
                  "Color": "FFFFFFFF"
                },
                {
                  "x": -7.135536,
                  "y": 23.0001,
                  "uvx": 0.0,
                  "uvy": 0.0,
                  "Color": "FFFFFFFF"
                },
                {
                  "x": -8.014755,
                  "y": 23.72641,
                  "uvx": 0.0,
                  "uvy": 0.0,
                  "Color": "FFFFFFFF"
                },
                {
                  "x": -8.855743,
                  "y": 24.33804,
                  "uvx": 0.0,
                  "uvy": 0.0,
                  "Color": "FFFFFFFF"
                },
                {
                  "x": -9.405502,
                  "y": 24.64068,
                  "uvx": 0.0,
                  "uvy": 0.0,
                  "Color": "FFFFFFFF"
                },
                {
                  "x": -10.0876,
                  "y": 24.81348,
                  "uvx": 0.0,
                  "uvy": 0.0,
                  "Color": "FFFFFFFF"
                },
                {
                  "x": -10.79699,
                  "y": 24.85896,
                  "uvx": 0.0,
                  "uvy": 0.0,
                  "Color": "FFFFFFFF"
                },
                {
                  "x": -11.44271,
                  "y": 24.76801,
                  "uvx": 0.0,
                  "uvy": 0.0,
                  "Color": "FFFFFFFF"
                },
                {
                  "x": -12.07024,
                  "y": 24.56792,
                  "uvx": 0.0,
                  "uvy": 0.0,
                  "Color": "FFFFFFFF"
                },
                {
                  "x": -12.52498,
                  "y": 24.20413,
                  "uvx": 0.0,
                  "uvy": 0.0,
                  "Color": "FFFFFFFF"
                },
                {
                  "x": -12.92514,
                  "y": 23.68574,
                  "uvx": 0.0,
                  "uvy": 0.0,
                  "Color": "FFFFFFFF"
                },
                {
                  "x": -13.12523,
                  "y": 23.14915,
                  "uvx": 0.0,
                  "uvy": 0.0,
                  "Color": "FFFFFFFF"
                },
                {
                  "x": -13.12523,
                  "y": 22.56709,
                  "uvx": 0.0,
                  "uvy": 0.0,
                  "Color": "FFFFFFFF"
                },
                {
                  "x": -12.96152,
                  "y": 21.96684,
                  "uvx": 0.0,
                  "uvy": 0.0,
                  "Color": "FFFFFFFF"
                },
                {
                  "x": -12.68868,
                  "y": 21.1665,
                  "uvx": 0.0,
                  "uvy": 0.0,
                  "Color": "FFFFFFFF"
                },
                {
                  "x": -12.23395,
                  "y": 20.00239,
                  "uvx": 0.0,
                  "uvy": 0.0,
                  "Color": "FFFFFFFF"
                },
                {
                  "x": -11.7775,
                  "y": 18.75173,
                  "uvx": 0.0,
                  "uvy": 0.0,
                  "Color": "FFFFFFFF"
                },
                {
                  "x": -11.29026,
                  "y": 17.00175,
                  "uvx": 0.0,
                  "uvy": 0.0,
                  "Color": "FFFFFFFF"
                },
                {
                  "x": -10.99124,
                  "y": 15.40205,
                  "uvx": 0.0,
                  "uvy": 0.0,
                  "Color": "FFFFFFFF"
                },
                {
                  "x": -10.72109,
                  "y": 13.27217,
                  "uvx": 0.0,
                  "uvy": 0.0,
                  "Color": "FFFFFFFF"
                },
                {
                  "x": -10.26087,
                  "y": 8.326572,
                  "uvx": 0.0,
                  "uvy": 0.0,
                  "Color": "FFFFFFFF"
                },
                {
                  "x": -9.81074,
                  "y": 5.714029,
                  "uvx": 0.0,
                  "uvy": 0.0,
                  "Color": "FFFFFFFF"
                },
                {
                  "x": -9.364958,
                  "y": 4.514631,
                  "uvx": 0.0,
                  "uvy": 0.0,
                  "Color": "FFFFFFFF"
                },
                {
                  "x": -8.796745,
                  "y": 3.586031,
                  "uvx": 0.0,
                  "uvy": 0.0,
                  "Color": "FFFFFFFF"
                },
                {
                  "x": -7.829754,
                  "y": 2.703568,
                  "uvx": 0.0,
                  "uvy": 0.0,
                  "Color": "FFFFFFFF"
                },
                {
                  "x": -6.731421,
                  "y": 2.144201,
                  "uvx": 0.0,
                  "uvy": 0.0,
                  "Color": "FFFFFFFF"
                },
                {
                  "x": -5.670872,
                  "y": 1.887991,
                  "uvx": 0.0,
                  "uvy": 0.0,
                  "Color": "FFFFFFFF"
                },
                {
                  "x": -4.510225,
                  "y": 1.754517,
                  "uvx": 0.0,
                  "uvy": 0.0,
                  "Color": "FFFFFFFF"
                },
                {
                  "x": -3.559963,
                  "y": 1.768051,
                  "uvx": 0.0,
                  "uvy": 0.0,
                  "Color": "FFFFFFFF"
                },
                {
                  "x": -2.444902,
                  "y": 1.871422,
                  "uvx": 0.0,
                  "uvy": 0.0,
                  "Color": "FFFFFFFF"
                },
                {
                  "x": -1.437063,
                  "y": 2.079891,
                  "uvx": 0.0,
                  "uvy": 0.0,
                  "Color": "FFFFFFFF"
                },
                {
                  "x": -0.37958,
                  "y": 2.455948,
                  "uvx": 0.0,
                  "uvy": 0.0,
                  "Color": "FFFFFFFF"
                },
                {
                  "x": 1.4909,
                  "y": 3.157379,
                  "uvx": 0.0,
                  "uvy": 0.0,
                  "Color": "FFFFFFFF"
                },
                {
                  "x": 3.439316,
                  "y": 3.702932,
                  "uvx": 0.0,
                  "uvy": 0.0,
                  "Color": "FFFFFFFF"
                },
                {
                  "x": 5.192894,
                  "y": 3.702932,
                  "uvx": 0.0,
                  "uvy": 0.0,
                  "Color": "FFFFFFFF"
                },
                {
                  "x": 6.829565,
                  "y": 3.079441,
                  "uvx": 0.0,
                  "uvy": 0.0,
                  "Color": "FFFFFFFF"
                },
                {
                  "x": 8.154491,
                  "y": 2.066265,
                  "uvx": 0.0,
                  "uvy": 0.0,
                  "Color": "FFFFFFFF"
                },
                {
                  "x": 9.323544,
                  "y": 0.624435,
                  "uvx": 0.0,
                  "uvy": 0.0,
                  "Color": "FFFFFFFF"
                },
                {
                  "x": 10.32455,
                  "y": -1.289572,
                  "uvx": 0.0,
                  "uvy": 0.0,
                  "Color": "FFFFFFFF"
                },
                {
                  "x": 11.64947,
                  "y": -4.523947,
                  "uvx": 0.0,
                  "uvy": 0.0,
                  "Color": "FFFFFFFF"
                },
                {
                  "x": 12.62368,
                  "y": -6.199585,
                  "uvx": 0.0,
                  "uvy": 0.0,
                  "Color": "FFFFFFFF"
                },
                {
                  "x": 13.9486,
                  "y": -7.485542,
                  "uvx": 0.0,
                  "uvy": 0.0,
                  "Color": "FFFFFFFF"
                },
                {
                  "x": 15.39043,
                  "y": -8.303875,
                  "uvx": 0.0,
                  "uvy": 0.0,
                  "Color": "FFFFFFFF"
                },
                {
                  "x": 16.98814,
                  "y": -8.69356,
                  "uvx": 0.0,
                  "uvy": 0.0,
                  "Color": "FFFFFFFF"
                },
                {
                  "x": 19.01449,
                  "y": -8.771497,
                  "uvx": 0.0,
                  "uvy": 0.0,
                  "Color": "FFFFFFFF"
                },
                {
                  "x": 20.92394,
                  "y": -8.264908,
                  "uvx": 0.0,
                  "uvy": 0.0,
                  "Color": "FFFFFFFF"
                },
                {
                  "x": 22.67752,
                  "y": -7.524509,
                  "uvx": 0.0,
                  "uvy": 0.0,
                  "Color": "FFFFFFFF"
                },
                {
                  "x": 24.27522,
                  "y": -6.745142,
                  "uvx": 0.0,
                  "uvy": 0.0,
                  "Color": "FFFFFFFF"
                },
                {
                  "x": 26.06776,
                  "y": -6.004742,
                  "uvx": 0.0,
                  "uvy": 0.0,
                  "Color": "FFFFFFFF"
                },
                {
                  "x": 27.8135,
                  "y": -5.239151,
                  "uvx": 0.0,
                  "uvy": 0.0,
                  "Color": "FFFFFFFF"
                },
                {
                  "x": 29.56723,
                  "y": -4.648785,
                  "uvx": 0.0,
                  "uvy": 0.0,
                  "Color": "FFFFFFFF"
                },
                {
                  "x": 31.12996,
                  "y": -4.162601,
                  "uvx": 0.0,
                  "uvy": 0.0,
                  "Color": "FFFFFFFF"
                },
                {
                  "x": 32.62324,
                  "y": -3.780598,
                  "uvx": 0.0,
                  "uvy": 0.0,
                  "Color": "FFFFFFFF"
                },
                {
                  "x": 34.32488,
                  "y": -3.433325,
                  "uvx": 0.0,
                  "uvy": 0.0,
                  "Color": "FFFFFFFF"
                },
                {
                  "x": 36.21753,
                  "y": -3.120777,
                  "uvx": 0.0,
                  "uvy": 0.0,
                  "Color": "FFFFFFFF"
                }
              ],
              "DetailWidth": 1.0,
              "Depth": -41.0,
              "TextureScale": {
                "x": 1.0,
                "y": 1.0
              },
              "TextureOffset": {
                "x": 0.2367,
                "y": -0.0042
              }
            }
          },
          {
            "Prefab": "respawn gostek",
            "Position": {
              "x": 52.6931,
              "y": 33.9883,
              "z": 0.0
            },
            "Rotation": {
              "x": 0.0,
              "y": 0.0,
              "z": 0.0
            },
            "Scale": {
              "x": 1.0,
              "y": 1.0,
              "z": 1.0
            }
          },
          {
            "Prefab": "protoshape",
            "Position": {
              "x": 43.4477,
              "y": 33.5637,
              "z": -9.5478
            },
            "Rotation": {
              "x": 0.0,
              "y": 0.0,
              "z": 0.0
            },
            "Scale": {
              "x": 1.0,
              "y": 1.0,
              "z": 1.0
            },
            "MapProp": {
              "Type": 0,
              "Color": "FFFFFFFF",
              "Mirror": false,
              "Material": 2
            },
            "ProtoshapeEdit": {
              "Type": 0,
              "Points": [
                {
                  "x": 19.53365,
                  "y": 5.832024,
                  "uvx": 0.0,
                  "uvy": 0.0,
                  "Color": "FFFFFFFF"
                },
                {
                  "x": 20.54226,
                  "y": 5.607285,
                  "uvx": 0.0,
                  "uvy": 0.0,
                  "Color": "FFFFFFFF"
                },
                {
                  "x": 21.62126,
                  "y": 5.092087,
                  "uvx": 0.0,
                  "uvy": 0.0,
                  "Color": "FFFFFFFF"
                },
                {
                  "x": 22.74886,
                  "y": 4.35331,
                  "uvx": 0.0,
                  "uvy": 0.0,
                  "Color": "FFFFFFFF"
                },
                {
                  "x": 23.62373,
                  "y": 3.702026,
                  "uvx": 0.0,
                  "uvy": 0.0,
                  "Color": "FFFFFFFF"
                },
                {
                  "x": 24.35278,
                  "y": 2.924362,
                  "uvx": 0.0,
                  "uvy": 0.0,
                  "Color": "FFFFFFFF"
                },
                {
                  "x": 25.19134,
                  "y": 1.953773,
                  "uvx": 0.0,
                  "uvy": 0.0,
                  "Color": "FFFFFFFF"
                },
                {
                  "x": 25.91068,
                  "y": 1.15667,
                  "uvx": 0.0,
                  "uvy": 0.0,
                  "Color": "FFFFFFFF"
                },
                {
                  "x": 26.97023,
                  "y": 0.26236,
                  "uvx": 0.0,
                  "uvy": 0.0,
                  "Color": "FFFFFFFF"
                },
                {
                  "x": 28.18533,
                  "y": -0.281998,
                  "uvx": 0.0,
                  "uvy": 0.0,
                  "Color": "FFFFFFFF"
                },
                {
                  "x": 29.54277,
                  "y": -0.46991,
                  "uvx": 0.0,
                  "uvy": 0.0,
                  "Color": "FFFFFFFF"
                },
                {
                  "x": 31.09501,
                  "y": -0.459206,
                  "uvx": 0.0,
                  "uvy": 0.0,
                  "Color": "FFFFFFFF"
                },
                {
                  "x": 32.49738,
                  "y": -0.084526,
                  "uvx": 0.0,
                  "uvy": 0.0,
                  "Color": "FFFFFFFF"
                },
                {
                  "x": 33.97469,
                  "y": 0.589897,
                  "uvx": 0.0,
                  "uvy": 0.0,
                  "Color": "FFFFFFFF"
                },
                {
                  "x": 35.4841,
                  "y": 1.360664,
                  "uvx": 0.0,
                  "uvy": 0.0,
                  "Color": "FFFFFFFF"
                },
                {
                  "x": 37.0731,
                  "y": 2.382088,
                  "uvx": 0.0,
                  "uvy": 0.0,
                  "Color": "FFFFFFFF"
                },
                {
                  "x": 38.49688,
                  "y": 3.484711,
                  "uvx": 0.0,
                  "uvy": 0.0,
                  "Color": "FFFFFFFF"
                },
                {
                  "x": 40.95906,
                  "y": 5.529388,
                  "uvx": 0.0,
                  "uvy": 0.0,
                  "Color": "FFFFFFFF"
                },
                {
                  "x": 41.96267,
                  "y": 6.134148,
                  "uvx": 0.0,
                  "uvy": 0.0,
                  "Color": "FFFFFFFF"
                },
                {
                  "x": 42.88332,
                  "y": 6.466003,
                  "uvx": 0.0,
                  "uvy": 0.0,
                  "Color": "FFFFFFFF"
                },
                {
                  "x": 43.87889,
                  "y": 6.540939,
                  "uvx": 0.0,
                  "uvy": 0.0,
                  "Color": "FFFFFFFF"
                },
                {
                  "x": 44.70318,
                  "y": 6.433891,
                  "uvx": 0.0,
                  "uvy": 0.0,
                  "Color": "FFFFFFFF"
                },
                {
                  "x": 45.61312,
                  "y": 6.176964,
                  "uvx": 0.0,
                  "uvy": 0.0,
                  "Color": "FFFFFFFF"
                },
                {
                  "x": 46.29825,
                  "y": 5.791588,
                  "uvx": 0.0,
                  "uvy": 0.0,
                  "Color": "FFFFFFFF"
                },
                {
                  "x": 46.92985,
                  "y": 5.267029,
                  "uvx": 0.0,
                  "uvy": 0.0,
                  "Color": "FFFFFFFF"
                },
                {
                  "x": 47.35806,
                  "y": 4.635429,
                  "uvx": 0.0,
                  "uvy": 0.0,
                  "Color": "FFFFFFFF"
                },
                {
                  "x": 47.6792,
                  "y": 3.875366,
                  "uvx": 0.0,
                  "uvy": 0.0,
                  "Color": "FFFFFFFF"
                },
                {
                  "x": 47.77555,
                  "y": 3.040367,
                  "uvx": 0.0,
                  "uvy": 0.0,
                  "Color": "FFFFFFFF"
                },
                {
                  "x": 47.70061,
                  "y": 2.365944,
                  "uvx": 0.0,
                  "uvy": 0.0,
                  "Color": "FFFFFFFF"
                },
                {
                  "x": 47.39016,
                  "y": 1.723633,
                  "uvx": 0.0,
                  "uvy": 0.0,
                  "Color": "FFFFFFFF"
                },
                {
                  "x": 46.95126,
                  "y": 1.177681,
                  "uvx": 0.0,
                  "uvy": 0.0,
                  "Color": "FFFFFFFF"
                },
                {
                  "x": 46.35177,
                  "y": 0.685242,
                  "uvx": 0.0,
                  "uvy": 0.0,
                  "Color": "FFFFFFFF"
                },
                {
                  "x": 45.68806,
                  "y": 0.44973,
                  "uvx": 0.0,
                  "uvy": 0.0,
                  "Color": "FFFFFFFF"
                },
                {
                  "x": 44.77812,
                  "y": 0.267746,
                  "uvx": 0.0,
                  "uvy": 0.0,
                  "Color": "FFFFFFFF"
                },
                {
                  "x": 43.71831,
                  "y": 0.171402,
                  "uvx": 0.0,
                  "uvy": 0.0,
                  "Color": "FFFFFFFF"
                },
                {
                  "x": 41.94127,
                  "y": -0.192581,
                  "uvx": 0.0,
                  "uvy": 0.0,
                  "Color": "FFFFFFFF"
                },
                {
                  "x": 40.91357,
                  "y": -0.545845,
                  "uvx": 0.0,
                  "uvy": 0.0,
                  "Color": "FFFFFFFF"
                },
                {
                  "x": 39.98223,
                  "y": -0.888413,
                  "uvx": 0.0,
                  "uvy": 0.0,
                  "Color": "FFFFFFFF"
                },
                {
                  "x": 38.90255,
                  "y": -1.53894,
                  "uvx": 0.0,
                  "uvy": 0.0,
                  "Color": "FFFFFFFF"
                },
                {
                  "x": 37.65244,
                  "y": -2.509987,
                  "uvx": 0.0,
                  "uvy": 0.0,
                  "Color": "FFFFFFFF"
                },
                {
                  "x": 36.61405,
                  "y": -3.462746,
                  "uvx": 0.0,
                  "uvy": 0.0,
                  "Color": "FFFFFFFF"
                },
                {
                  "x": 35.35609,
                  "y": -4.918785,
                  "uvx": 0.0,
                  "uvy": 0.0,
                  "Color": "FFFFFFFF"
                },
                {
                  "x": 33.98954,
                  "y": -6.198305,
                  "uvx": 0.0,
                  "uvy": 0.0,
                  "Color": "FFFFFFFF"
                },
                {
                  "x": 33.06755,
                  "y": -6.921013,
                  "uvx": 0.0,
                  "uvy": 0.0,
                  "Color": "FFFFFFFF"
                },
                {
                  "x": 32.0232,
                  "y": -7.420967,
                  "uvx": 0.0,
                  "uvy": 0.0,
                  "Color": "FFFFFFFF"
                },
                {
                  "x": 30.85664,
                  "y": -7.609838,
                  "uvx": 0.0,
                  "uvy": 0.0,
                  "Color": "FFFFFFFF"
                },
                {
                  "x": 29.80117,
                  "y": -7.576509,
                  "uvx": 0.0,
                  "uvy": 0.0,
                  "Color": "FFFFFFFF"
                },
                {
                  "x": 28.50129,
                  "y": -7.343197,
                  "uvx": 0.0,
                  "uvy": 0.0,
                  "Color": "FFFFFFFF"
                },
                {
                  "x": 27.46805,
                  "y": -6.965452,
                  "uvx": 0.0,
                  "uvy": 0.0,
                  "Color": "FFFFFFFF"
                },
                {
                  "x": 26.42369,
                  "y": -6.454388,
                  "uvx": 0.0,
                  "uvy": 0.0,
                  "Color": "FFFFFFFF"
                },
                {
                  "x": 24.77399,
                  "y": -5.415905,
                  "uvx": 0.0,
                  "uvy": 0.0,
                  "Color": "FFFFFFFF"
                },
                {
                  "x": 23.26301,
                  "y": -4.482655,
                  "uvx": 0.0,
                  "uvy": 0.0,
                  "Color": "FFFFFFFF"
                },
                {
                  "x": 22.09645,
                  "y": -3.938259,
                  "uvx": 0.0,
                  "uvy": 0.0,
                  "Color": "FFFFFFFF"
                },
                {
                  "x": 20.79657,
                  "y": -3.682724,
                  "uvx": 0.0,
                  "uvy": 0.0,
                  "Color": "FFFFFFFF"
                },
                {
                  "x": 19.55178,
                  "y": -3.603607,
                  "uvx": 0.0,
                  "uvy": 0.0,
                  "Color": "FFFFFFFF"
                },
                {
                  "x": 18.35254,
                  "y": -3.656319,
                  "uvx": 0.0,
                  "uvy": 0.0,
                  "Color": "FFFFFFFF"
                },
                {
                  "x": 17.00833,
                  "y": -3.933071,
                  "uvx": 0.0,
                  "uvy": 0.0,
                  "Color": "FFFFFFFF"
                },
                {
                  "x": 15.87498,
                  "y": -4.447033,
                  "uvx": 0.0,
                  "uvy": 0.0,
                  "Color": "FFFFFFFF"
                },
                {
                  "x": 14.8207,
                  "y": -5.105957,
                  "uvx": 0.0,
                  "uvy": 0.0,
                  "Color": "FFFFFFFF"
                },
                {
                  "x": 13.81913,
                  "y": -5.71217,
                  "uvx": 0.0,
                  "uvy": 0.0,
                  "Color": "FFFFFFFF"
                },
                {
                  "x": 12.70442,
                  "y": -6.430822,
                  "uvx": 0.0,
                  "uvy": 0.0,
                  "Color": "FFFFFFFF"
                },
                {
                  "x": 11.65014,
                  "y": -6.957964,
                  "uvx": 0.0,
                  "uvy": 0.0,
                  "Color": "FFFFFFFF"
                },
                {
                  "x": 10.58269,
                  "y": -7.340137,
                  "uvx": 0.0,
                  "uvy": 0.0,
                  "Color": "FFFFFFFF"
                },
                {
                  "x": 9.370262,
                  "y": -7.590528,
                  "uvx": 0.0,
                  "uvy": 0.0,
                  "Color": "FFFFFFFF"
                },
                {
                  "x": 8.223732,
                  "y": -7.630064,
                  "uvx": 0.0,
                  "uvy": 0.0,
                  "Color": "FFFFFFFF"
                },
                {
                  "x": 7.116737,
                  "y": -7.432388,
                  "uvx": 0.0,
                  "uvy": 0.0,
                  "Color": "FFFFFFFF"
                },
                {
                  "x": 6.041439,
                  "y": -6.94651,
                  "uvx": 0.0,
                  "uvy": 0.0,
                  "Color": "FFFFFFFF"
                },
                {
                  "x": 5.066223,
                  "y": -6.16898,
                  "uvx": 0.0,
                  "uvy": 0.0,
                  "Color": "FFFFFFFF"
                },
                {
                  "x": 3.68251,
                  "y": -4.757408,
                  "uvx": 0.0,
                  "uvy": 0.0,
                  "Color": "FFFFFFFF"
                },
                {
                  "x": 2.511829,
                  "y": -3.51355,
                  "uvx": 0.0,
                  "uvy": 0.0,
                  "Color": "FFFFFFFF"
                },
                {
                  "x": 1.414314,
                  "y": -2.544083,
                  "uvx": 0.0,
                  "uvy": 0.0,
                  "Color": "FFFFFFFF"
                },
                {
                  "x": 0.207047,
                  "y": -1.538017,
                  "uvx": 0.0,
                  "uvy": 0.0,
                  "Color": "FFFFFFFF"
                },
                {
                  "x": -0.872181,
                  "y": -0.9161,
                  "uvx": 0.0,
                  "uvy": 0.0,
                  "Color": "FFFFFFFF"
                },
                {
                  "x": -1.876873,
                  "y": -0.490089,
                  "uvx": 0.0,
                  "uvy": 0.0,
                  "Color": "FFFFFFFF"
                },
                {
                  "x": -2.673523,
                  "y": -0.221344,
                  "uvx": 0.0,
                  "uvy": 0.0,
                  "Color": "FFFFFFFF"
                },
                {
                  "x": -3.431782,
                  "y": -0.067764,
                  "uvx": 0.0,
                  "uvy": 0.0,
                  "Color": "FFFFFFFF"
                },
                {
                  "x": -4.59317,
                  "y": 0.143395,
                  "uvx": 0.0,
                  "uvy": 0.0,
                  "Color": "FFFFFFFF"
                },
                {
                  "x": -5.716164,
                  "y": 0.277771,
                  "uvx": 0.0,
                  "uvy": 0.0,
                  "Color": "FFFFFFFF"
                },
                {
                  "x": -6.560802,
                  "y": 0.440933,
                  "uvx": 0.0,
                  "uvy": 0.0,
                  "Color": "FFFFFFFF"
                },
                {
                  "x": -7.25919,
                  "y": 0.697807,
                  "uvx": 0.0,
                  "uvy": 0.0,
                  "Color": "FFFFFFFF"
                },
                {
                  "x": -7.848198,
                  "y": 1.142464,
                  "uvx": 0.0,
                  "uvy": 0.0,
                  "Color": "FFFFFFFF"
                },
                {
                  "x": -8.299316,
                  "y": 1.718353,
                  "uvx": 0.0,
                  "uvy": 0.0,
                  "Color": "FFFFFFFF"
                },
                {
                  "x": -8.596859,
                  "y": 2.303848,
                  "uvx": 0.0,
                  "uvy": 0.0,
                  "Color": "FFFFFFFF"
                },
                {
                  "x": -8.683243,
                  "y": 3.03331,
                  "uvx": 0.0,
                  "uvy": 0.0,
                  "Color": "FFFFFFFF"
                },
                {
                  "x": -8.587261,
                  "y": 3.849159,
                  "uvx": 0.0,
                  "uvy": 0.0,
                  "Color": "FFFFFFFF"
                },
                {
                  "x": -8.267002,
                  "y": 4.629616,
                  "uvx": 0.0,
                  "uvy": 0.0,
                  "Color": "FFFFFFFF"
                },
                {
                  "x": -7.825485,
                  "y": 5.272697,
                  "uvx": 0.0,
                  "uvy": 0.0,
                  "Color": "FFFFFFFF"
                },
                {
                  "x": -7.220795,
                  "y": 5.791,
                  "uvx": 0.0,
                  "uvy": 0.0,
                  "Color": "FFFFFFFF"
                },
                {
                  "x": -6.510529,
                  "y": 6.184532,
                  "uvx": 0.0,
                  "uvy": 0.0,
                  "Color": "FFFFFFFF"
                },
                {
                  "x": -5.675484,
                  "y": 6.424484,
                  "uvx": 0.0,
                  "uvy": 0.0,
                  "Color": "FFFFFFFF"
                },
                {
                  "x": -4.782848,
                  "y": 6.539665,
                  "uvx": 0.0,
                  "uvy": 0.0,
                  "Color": "FFFFFFFF"
                },
                {
                  "x": -3.775032,
                  "y": 6.462875,
                  "uvx": 0.0,
                  "uvy": 0.0,
                  "Color": "FFFFFFFF"
                },
                {
                  "x": -2.891113,
                  "y": 6.136864,
                  "uvx": 0.0,
                  "uvy": 0.0,
                  "Color": "FFFFFFFF"
                },
                {
                  "x": -1.935986,
                  "y": 5.609901,
                  "uvx": 0.0,
                  "uvy": 0.0,
                  "Color": "FFFFFFFF"
                },
                {
                  "x": 0.089531,
                  "y": 3.913734,
                  "uvx": 0.0,
                  "uvy": 0.0,
                  "Color": "FFFFFFFF"
                },
                {
                  "x": 1.999779,
                  "y": 2.415176,
                  "uvx": 0.0,
                  "uvy": 0.0,
                  "Color": "FFFFFFFF"
                },
                {
                  "x": 3.630074,
                  "y": 1.34478,
                  "uvx": 0.0,
                  "uvy": 0.0,
                  "Color": "FFFFFFFF"
                },
                {
                  "x": 5.1945,
                  "y": 0.537865,
                  "uvx": 0.0,
                  "uvy": 0.0,
                  "Color": "FFFFFFFF"
                },
                {
                  "x": 6.63176,
                  "y": -0.093727,
                  "uvx": 0.0,
                  "uvy": 0.0,
                  "Color": "FFFFFFFF"
                },
                {
                  "x": 8.019062,
                  "y": -0.450462,
                  "uvx": 0.0,
                  "uvy": 0.0,
                  "Color": "FFFFFFFF"
                },
                {
                  "x": 9.525276,
                  "y": -0.490097,
                  "uvx": 0.0,
                  "uvy": 0.0,
                  "Color": "FFFFFFFF"
                },
                {
                  "x": 10.91257,
                  "y": -0.272095,
                  "uvx": 0.0,
                  "uvy": 0.0,
                  "Color": "FFFFFFFF"
                },
                {
                  "x": 12.06205,
                  "y": 0.223366,
                  "uvx": 0.0,
                  "uvy": 0.0,
                  "Color": "FFFFFFFF"
                },
                {
                  "x": 13.0728,
                  "y": 1.035927,
                  "uvx": 0.0,
                  "uvy": 0.0,
                  "Color": "FFFFFFFF"
                },
                {
                  "x": 13.86554,
                  "y": 1.88813,
                  "uvx": 0.0,
                  "uvy": 0.0,
                  "Color": "FFFFFFFF"
                },
                {
                  "x": 14.65829,
                  "y": 2.779961,
                  "uvx": 0.0,
                  "uvy": 0.0,
                  "Color": "FFFFFFFF"
                },
                {
                  "x": 15.45102,
                  "y": 3.651985,
                  "uvx": 0.0,
                  "uvy": 0.0,
                  "Color": "FFFFFFFF"
                },
                {
                  "x": 16.42213,
                  "y": 4.385269,
                  "uvx": 0.0,
                  "uvy": 0.0,
                  "Color": "FFFFFFFF"
                },
                {
                  "x": 17.49234,
                  "y": 5.098732,
                  "uvx": 0.0,
                  "uvy": 0.0,
                  "Color": "FFFFFFFF"
                },
                {
                  "x": 18.5229,
                  "y": 5.614021,
                  "uvx": 0.0,
                  "uvy": 0.0,
                  "Color": "FFFFFFFF"
                }
              ],
              "DetailWidth": 1.0,
              "Depth": 0.0,
              "TextureScale": {
                "x": 1.0,
                "y": 1.0
              },
              "TextureOffset": {
                "x": 0.0,
                "y": 0.0
              }
            }
          },
          {
            "Prefab": "protoshape",
            "Position": {
              "x": 55.0376,
              "y": 19.5607,
              "z": -9.5477
            },
            "Rotation": {
              "x": 0.0,
              "y": 0.0,
              "z": 0.0
            },
            "Scale": {
              "x": 1.0,
              "y": 1.0,
              "z": 1.0
            },
            "MapProp": {
              "Type": 0,
              "Color": "FFFFFFFF",
              "Mirror": false,
              "Material": 2
            },
            "ProtoshapeEdit": {
              "Type": 0,
              "Points": [
                {
                  "x": 7.082024,
                  "y": 6.117393,
                  "uvx": 0.0,
                  "uvy": 0.0,
                  "Color": "FFFFFFFF"
                },
                {
                  "x": 7.982285,
                  "y": 6.153257,
                  "uvx": 0.0,
                  "uvy": 0.0,
                  "Color": "FFFFFFFF"
                },
                {
                  "x": 8.842148,
                  "y": 6.11207,
                  "uvx": 0.0,
                  "uvy": 0.0,
                  "Color": "FFFFFFFF"
                },
                {
                  "x": 9.840393,
                  "y": 5.860657,
                  "uvx": 0.0,
                  "uvy": 0.0,
                  "Color": "FFFFFFFF"
                },
                {
                  "x": 10.80167,
                  "y": 5.446568,
                  "uvx": 0.0,
                  "uvy": 0.0,
                  "Color": "FFFFFFFF"
                },
                {
                  "x": 11.69583,
                  "y": 4.952791,
                  "uvx": 0.0,
                  "uvy": 0.0,
                  "Color": "FFFFFFFF"
                },
                {
                  "x": 12.70887,
                  "y": 4.287292,
                  "uvx": 0.0,
                  "uvy": 0.0,
                  "Color": "FFFFFFFF"
                },
                {
                  "x": 13.52225,
                  "y": 3.740103,
                  "uvx": 0.0,
                  "uvy": 0.0,
                  "Color": "FFFFFFFF"
                },
                {
                  "x": 14.50632,
                  "y": 3.247639,
                  "uvx": 0.0,
                  "uvy": 0.0,
                  "Color": "FFFFFFFF"
                },
                {
                  "x": 15.54594,
                  "y": 2.919062,
                  "uvx": 0.0,
                  "uvy": 0.0,
                  "Color": "FFFFFFFF"
                },
                {
                  "x": 16.81779,
                  "y": 2.578917,
                  "uvx": 0.0,
                  "uvy": 0.0,
                  "Color": "FFFFFFFF"
                },
                {
                  "x": 18.03152,
                  "y": 2.478111,
                  "uvx": 0.0,
                  "uvy": 0.0,
                  "Color": "FFFFFFFF"
                },
                {
                  "x": 19.60474,
                  "y": 2.493458,
                  "uvx": 0.0,
                  "uvy": 0.0,
                  "Color": "FFFFFFFF"
                },
                {
                  "x": 20.85563,
                  "y": 2.662292,
                  "uvx": 0.0,
                  "uvy": 0.0,
                  "Color": "FFFFFFFF"
                },
                {
                  "x": 21.42353,
                  "y": 2.45509,
                  "uvx": 0.0,
                  "uvy": 0.0,
                  "Color": "FFFFFFFF"
                },
                {
                  "x": 21.78421,
                  "y": 1.971613,
                  "uvx": 0.0,
                  "uvy": 0.0,
                  "Color": "FFFFFFFF"
                },
                {
                  "x": 21.75352,
                  "y": 1.280937,
                  "uvx": 0.0,
                  "uvy": 0.0,
                  "Color": "FFFFFFFF"
                },
                {
                  "x": 21.53864,
                  "y": 0.528864,
                  "uvx": 0.0,
                  "uvy": 0.0,
                  "Color": "FFFFFFFF"
                },
                {
                  "x": 21.00124,
                  "y": -0.06398,
                  "uvx": 0.0,
                  "uvy": 0.0,
                  "Color": "FFFFFFFF"
                },
                {
                  "x": 20.13406,
                  "y": -0.662565,
                  "uvx": 0.0,
                  "uvy": 0.0,
                  "Color": "FFFFFFFF"
                },
                {
                  "x": 19.27454,
                  "y": -1.084646,
                  "uvx": 0.0,
                  "uvy": 0.0,
                  "Color": "FFFFFFFF"
                },
                {
                  "x": 18.56851,
                  "y": -1.207436,
                  "uvx": 0.0,
                  "uvy": 0.0,
                  "Color": "FFFFFFFF"
                },
                {
                  "x": 17.57086,
                  "y": -1.053949,
                  "uvx": 0.0,
                  "uvy": 0.0,
                  "Color": "FFFFFFFF"
                },
                {
                  "x": 16.32346,
                  "y": -0.682608,
                  "uvx": 0.0,
                  "uvy": 0.0,
                  "Color": "FFFFFFFF"
                },
                {
                  "x": 14.85143,
                  "y": -0.29944,
                  "uvx": 0.0,
                  "uvy": 0.0,
                  "Color": "FFFFFFFF"
                },
                {
                  "x": 12.67144,
                  "y": 0.267883,
                  "uvx": 0.0,
                  "uvy": 0.0,
                  "Color": "FFFFFFFF"
                },
                {
                  "x": 11.42218,
                  "y": 0.553103,
                  "uvx": 0.0,
                  "uvy": 0.0,
                  "Color": "FFFFFFFF"
                },
                {
                  "x": 10.21856,
                  "y": 0.747051,
                  "uvx": 0.0,
                  "uvy": 0.0,
                  "Color": "FFFFFFFF"
                },
                {
                  "x": 9.106201,
                  "y": 0.82691,
                  "uvx": 0.0,
                  "uvy": 0.0,
                  "Color": "FFFFFFFF"
                },
                {
                  "x": 7.964329,
                  "y": 0.858397,
                  "uvx": 0.0,
                  "uvy": 0.0,
                  "Color": "FFFFFFFF"
                },
                {
                  "x": 6.955544,
                  "y": 0.832195,
                  "uvx": 0.0,
                  "uvy": 0.0,
                  "Color": "FFFFFFFF"
                },
                {
                  "x": 5.737133,
                  "y": 0.740488,
                  "uvx": 0.0,
                  "uvy": 0.0,
                  "Color": "FFFFFFFF"
                },
                {
                  "x": 4.51873,
                  "y": 0.557072,
                  "uvx": 0.0,
                  "uvy": 0.0,
                  "Color": "FFFFFFFF"
                },
                {
                  "x": 3.378933,
                  "y": 0.308149,
                  "uvx": 0.0,
                  "uvy": 0.0,
                  "Color": "FFFFFFFF"
                },
                {
                  "x": 1.531673,
                  "y": -0.176594,
                  "uvx": 0.0,
                  "uvy": 0.0,
                  "Color": "FFFFFFFF"
                },
                {
                  "x": -0.410069,
                  "y": -0.674032,
                  "uvx": 0.0,
                  "uvy": 0.0,
                  "Color": "FFFFFFFF"
                },
                {
                  "x": -1.641014,
                  "y": -1.041958,
                  "uvx": 0.0,
                  "uvy": 0.0,
                  "Color": "FFFFFFFF"
                },
                {
                  "x": -2.626976,
                  "y": -1.206285,
                  "uvx": 0.0,
                  "uvy": 0.0,
                  "Color": "FFFFFFFF"
                },
                {
                  "x": -3.35873,
                  "y": -1.082312,
                  "uvx": 0.0,
                  "uvy": 0.0,
                  "Color": "FFFFFFFF"
                },
                {
                  "x": -4.215988,
                  "y": -0.665022,
                  "uvx": 0.0,
                  "uvy": 0.0,
                  "Color": "FFFFFFFF"
                },
                {
                  "x": -5.055504,
                  "y": -0.064672,
                  "uvx": 0.0,
                  "uvy": 0.0,
                  "Color": "FFFFFFFF"
                },
                {
                  "x": -5.633175,
                  "y": 0.546978,
                  "uvx": 0.0,
                  "uvy": 0.0,
                  "Color": "FFFFFFFF"
                },
                {
                  "x": -5.837059,
                  "y": 1.260572,
                  "uvx": 0.0,
                  "uvy": 0.0,
                  "Color": "FFFFFFFF"
                },
                {
                  "x": -5.85405,
                  "y": 1.974167,
                  "uvx": 0.0,
                  "uvy": 0.0,
                  "Color": "FFFFFFFF"
                },
                {
                  "x": -5.497253,
                  "y": 2.466887,
                  "uvx": 0.0,
                  "uvy": 0.0,
                  "Color": "FFFFFFFF"
                },
                {
                  "x": -4.936569,
                  "y": 2.670771,
                  "uvx": 0.0,
                  "uvy": 0.0,
                  "Color": "FFFFFFFF"
                },
                {
                  "x": -3.628315,
                  "y": 2.483875,
                  "uvx": 0.0,
                  "uvy": 0.0,
                  "Color": "FFFFFFFF"
                },
                {
                  "x": -2.133167,
                  "y": 2.466887,
                  "uvx": 0.0,
                  "uvy": 0.0,
                  "Color": "FFFFFFFF"
                },
                {
                  "x": -0.8419,
                  "y": 2.585815,
                  "uvx": 0.0,
                  "uvy": 0.0,
                  "Color": "FFFFFFFF"
                },
                {
                  "x": 0.364407,
                  "y": 2.908634,
                  "uvx": 0.0,
                  "uvy": 0.0,
                  "Color": "FFFFFFFF"
                },
                {
                  "x": 1.434803,
                  "y": 3.26543,
                  "uvx": 0.0,
                  "uvy": 0.0,
                  "Color": "FFFFFFFF"
                },
                {
                  "x": 2.420238,
                  "y": 3.758148,
                  "uvx": 0.0,
                  "uvy": 0.0,
                  "Color": "FFFFFFFF"
                },
                {
                  "x": 3.371696,
                  "y": 4.386791,
                  "uvx": 0.0,
                  "uvy": 0.0,
                  "Color": "FFFFFFFF"
                },
                {
                  "x": 4.20422,
                  "y": 4.930481,
                  "uvx": 0.0,
                  "uvy": 0.0,
                  "Color": "FFFFFFFF"
                },
                {
                  "x": 5.134636,
                  "y": 5.448444,
                  "uvx": 0.0,
                  "uvy": 0.0,
                  "Color": "FFFFFFFF"
                },
                {
                  "x": 6.100895,
                  "y": 5.849815,
                  "uvx": 0.0,
                  "uvy": 0.0,
                  "Color": "FFFFFFFF"
                }
              ],
              "DetailWidth": 1.0,
              "Depth": 0.0,
              "TextureScale": {
                "x": 1.0,
                "y": 1.0
              },
              "TextureOffset": {
                "x": 0.2105,
                "y": 0.0
              }
            }
          },
          {
            "Prefab": "protoshape",
            "Position": {
              "x": 23.1424,
              "y": 28.8121,
              "z": -9.5478
            },
            "Rotation": {
              "x": 0.0,
              "y": 0.0,
              "z": 0.0
            },
            "Scale": {
              "x": 1.0,
              "y": 1.0,
              "z": 1.0
            },
            "MapProp": {
              "Type": 0,
              "Color": "FFFFFFFF",
              "Mirror": true,
              "Material": 2
            },
            "ProtoshapeEdit": {
              "Type": 0,
              "Points": [
                {
                  "x": 2.666544,
                  "y": -3.009907,
                  "uvx": 0.0,
                  "uvy": 0.0,
                  "Color": "FFFFFFFF"
                },
                {
                  "x": 2.019922,
                  "y": -3.537764,
                  "uvx": 0.0,
                  "uvy": 0.0,
                  "Color": "FFFFFFFF"
                },
                {
                  "x": 0.753067,
                  "y": -3.986441,
                  "uvx": 0.0,
                  "uvy": 0.0,
                  "Color": "FFFFFFFF"
                },
                {
                  "x": -0.544621,
                  "y": -4.207451,
                  "uvx": 0.0,
                  "uvy": 0.0,
                  "Color": "FFFFFFFF"
                },
                {
                  "x": -2.00075,
                  "y": -4.323015,
                  "uvx": 0.0,
                  "uvy": 0.0,
                  "Color": "FFFFFFFF"
                },
                {
                  "x": -3.318197,
                  "y": -4.172781,
                  "uvx": 0.0,
                  "uvy": 0.0,
                  "Color": "FFFFFFFF"
                },
                {
                  "x": -4.127159,
                  "y": -3.710518,
                  "uvx": 0.0,
                  "uvy": 0.0,
                  "Color": "FFFFFFFF"
                },
                {
                  "x": -4.670317,
                  "y": -2.936228,
                  "uvx": 0.0,
                  "uvy": 0.0,
                  "Color": "FFFFFFFF"
                },
                {
                  "x": -5.431461,
                  "y": 0.185402,
                  "uvx": 0.0,
                  "uvy": 0.0,
                  "Color": "FFFFFFFF"
                },
                {
                  "x": -5.800962,
                  "y": 2.600342,
                  "uvx": 0.0,
                  "uvy": 0.0,
                  "Color": "FFFFFFFF"
                },
                {
                  "x": -5.787766,
                  "y": 3.392128,
                  "uvx": 0.0,
                  "uvy": 0.0,
                  "Color": "FFFFFFFF"
                },
                {
                  "x": -5.629408,
                  "y": 4.01236,
                  "uvx": 0.0,
                  "uvy": 0.0,
                  "Color": "FFFFFFFF"
                },
                {
                  "x": -5.048765,
                  "y": 4.408241,
                  "uvx": 0.0,
                  "uvy": 0.0,
                  "Color": "FFFFFFFF"
                },
                {
                  "x": -4.728256,
                  "y": 4.477509,
                  "uvx": 0.0,
                  "uvy": 0.0,
                  "Color": "FFFFFFFF"
                },
                {
                  "x": -3.663143,
                  "y": 4.381851,
                  "uvx": 0.0,
                  "uvy": 0.0,
                  "Color": "FFFFFFFF"
                },
                {
                  "x": -2.711765,
                  "y": 3.92485,
                  "uvx": 0.0,
                  "uvy": 0.0,
                  "Color": "FFFFFFFF"
                },
                {
                  "x": -1.736473,
                  "y": 3.33934,
                  "uvx": 0.0,
                  "uvy": 0.0,
                  "Color": "FFFFFFFF"
                },
                {
                  "x": -0.905096,
                  "y": 2.758698,
                  "uvx": 0.0,
                  "uvy": 0.0,
                  "Color": "FFFFFFFF"
                },
                {
                  "x": -0.00774,
                  "y": 2.072487,
                  "uvx": 0.0,
                  "uvy": 0.0,
                  "Color": "FFFFFFFF"
                },
                {
                  "x": 0.770845,
                  "y": 1.452255,
                  "uvx": 0.0,
                  "uvy": 0.0,
                  "Color": "FFFFFFFF"
                },
                {
                  "x": 1.523041,
                  "y": 0.726448,
                  "uvx": 0.0,
                  "uvy": 0.0,
                  "Color": "FFFFFFFF"
                },
                {
                  "x": 2.14327,
                  "y": -0.025742,
                  "uvx": 0.0,
                  "uvy": 0.0,
                  "Color": "FFFFFFFF"
                },
                {
                  "x": 2.631536,
                  "y": -0.76474,
                  "uvx": 0.0,
                  "uvy": 0.0,
                  "Color": "FFFFFFFF"
                },
                {
                  "x": 2.94825,
                  "y": -1.556526,
                  "uvx": 0.0,
                  "uvy": 0.0,
                  "Color": "FFFFFFFF"
                },
                {
                  "x": 2.961447,
                  "y": -2.295523,
                  "uvx": 0.0,
                  "uvy": 0.0,
                  "Color": "FFFFFFFF"
                }
              ],
              "DetailWidth": 1.0,
              "Depth": 0.0,
              "TextureScale": {
                "x": 1.0,
                "y": 1.0
              },
              "TextureOffset": {
                "x": 0.0,
                "y": 0.0
              }
            }
          },
          {
            "Prefab": "respawn gostek",
            "Position": {
              "x": 18.1365,
              "y": 22.5112,
              "z": 0.0
            },
            "Rotation": {
              "x": 0.0,
              "y": 0.0,
              "z": 0.0
            },
            "Scale": {
              "x": 1.0,
              "y": 1.0,
              "z": 1.0
            }
          },
          {
            "Prefab": "respawn gostek",
            "Position": {
              "x": 41.8135,
              "y": 11.6532,
              "z": 0.0
            },
            "Rotation": {
              "x": 0.0,
              "y": 0.0,
              "z": 0.0
            },
            "Scale": {
              "x": 1.0,
              "y": 1.0,
              "z": 1.0
            }
          },
          {
            "Prefab": "respawn gostek",
            "Position": {
              "x": 54.1331,
              "y": 23.6652,
              "z": 0.0
            },
            "Rotation": {
              "x": 0.0,
              "y": 0.0,
              "z": 0.0
            },
            "Scale": {
              "x": 1.0,
              "y": 1.0,
              "z": 1.0
            }
          },
          {
            "Prefab": "mapprop",
            "Position": {
              "x": -27.9803,
              "y": 26.5943,
              "z": 103.1724
            },
            "Rotation": {
              "x": 349.6136,
              "y": 333.0815,
              "z": 340.4511
            },
            "Scale": {
              "x": 3.7758,
              "y": 3.7758,
              "z": 3.7758
            },
            "MapProp": {
              "Type": 1,
              "Color": "FFFFFFFF",
              "Mirror": true,
              "Material": 0
            },
            "PropModel": {
              "Model": "SM_Env_Background_Hills_01"
            }
          },
          {
            "Prefab": "mapprop",
            "Position": {
              "x": 61.7395,
              "y": 13.5033,
              "z": 82.2471
            },
            "Rotation": {
              "x": 0.0,
              "y": 0.0,
              "z": 0.0
            },
            "Scale": {
              "x": 1.0,
              "y": 1.0,
              "z": 1.0
            },
            "MapProp": {
              "Type": 1,
              "Color": "FFFFFFFF",
              "Mirror": false,
              "Material": 0
            },
            "PropModel": {
              "Model": "SM_Generic_Mountains_Soft_01"
            }
          },
          {
            "Prefab": "mapprop",
            "Position": {
              "x": 25.9075,
              "y": 10.6398,
              "z": 78.0831
            },
            "Rotation": {
              "x": 0.0,
              "y": 323.3353,
              "z": 0.0
            },
            "Scale": {
              "x": 5.497,
              "y": 5.497,
              "z": 5.497
            },
            "MapProp": {
              "Type": 1,
              "Color": "FFFFFFFF",
              "Mirror": true,
              "Material": 0
            },
            "PropModel": {
              "Model": "SM_Generic_Mountains_Grass_02"
            }
          },
          {
            "Prefab": "mapprop",
            "Position": {
              "x": 100.0925,
              "y": 10.6398,
              "z": 78.0831
            },
            "Rotation": {
              "x": 0.0,
              "y": 36.6647,
              "z": 0.0
            },
            "Scale": {
              "x": -5.497,
              "y": 5.497,
              "z": 5.497
            },
            "MapProp": {
              "Type": 1,
              "Color": "FFFFFFFF",
              "Mirror": true,
              "Material": 0
            },
            "PropModel": {
              "Model": "SM_Generic_Mountains_Grass_02"
            }
          },
          {
            "Prefab": "mapprop",
            "Position": {
              "x": 42.6419,
              "y": 35.7909,
              "z": 60.1509
            },
            "Rotation": {
              "x": 351.5913,
              "y": 195.8106,
              "z": 27.3123
            },
            "Scale": {
              "x": 0.5023,
              "y": 0.5839,
              "z": 0.5023
            },
            "MapProp": {
              "Type": 1,
              "Color": "FFFFFFFF",
              "Mirror": true,
              "Material": 0
            },
            "PropModel": {
              "Model": "SM_Env_Cave_Background_Corner_02_DoubleSided"
            }
          },
          {
            "Prefab": "mapprop",
            "Position": {
              "x": 29.7029,
              "y": 28.1501,
              "z": 65.8684
            },
            "Rotation": {
              "x": 0.0,
              "y": 0.0,
              "z": 0.0
            },
            "Scale": {
              "x": -1.0,
              "y": 1.0,
              "z": 1.0
            },
            "MapProp": {
              "Type": 1,
              "Color": "FFFFFFFF",
              "Mirror": true,
              "Material": 0
            },
            "PropModel": {
              "Model": "SM_Env_PalmTree_02"
            }
          },
          {
            "Prefab": "mapprop",
            "Position": {
              "x": 20.5378,
              "y": 31.1763,
              "z": 29.8824
            },
            "Rotation": {
              "x": 8.8227,
              "y": 23.0715,
              "z": 343.3066
            },
            "Scale": {
              "x": 1.0,
              "y": 1.0,
              "z": 1.0
            },
            "MapProp": {
              "Type": 1,
              "Color": "FFFFFFFF",
              "Mirror": true,
              "Material": 0
            },
            "PropModel": {
              "Model": "SM_Env_PalmTree_02"
            }
          },
          {
            "Prefab": "mapprop",
            "Position": {
              "x": 35.6852,
              "y": 11.1645,
              "z": 33.1118
            },
            "Rotation": {
              "x": 358.7274,
              "y": 61.3079,
              "z": 0.6964
            },
            "Scale": {
              "x": -1.0,
              "y": 1.0,
              "z": 1.0
            },
            "MapProp": {
              "Type": 1,
              "Color": "FFFFFFFF",
              "Mirror": true,
              "Material": 0
            },
            "PropModel": {
              "Model": "SM_Env_PalmTree_Tall_02"
            }
          },
          {
            "Prefab": "mapprop",
            "Position": {
              "x": 51.5123,
              "y": 20.8767,
              "z": 29.8824
            },
            "Rotation": {
              "x": 352.3851,
              "y": 183.3279,
              "z": 66.3076
            },
            "Scale": {
              "x": 1.5872,
              "y": 1.5872,
              "z": 1.233
            },
            "MapProp": {
              "Type": 1,
              "Color": "FFFFFFFF",
              "Mirror": true,
              "Material": 0
            },
            "PropModel": {
              "Model": "SM_Env_Wood_Pole_01"
            }
          },
          {
            "Prefab": "mapprop",
            "Position": {
              "x": 38.5659,
              "y": 39.7492,
              "z": -1.3656
            },
            "Rotation": {
              "x": 0.0,
              "y": 268.4177,
              "z": 0.0
            },
            "Scale": {
              "x": 1.2411,
              "y": 1.2411,
              "z": 1.2411
            },
            "MapProp": {
              "Type": 2,
              "Color": "FFFFFFFF",
              "Mirror": true,
              "Material": 0
            },
            "PropModel": {
              "Model": "SM_Prop_Sandbag_Wall_03"
            }
          },
          {
            "Prefab": "mapprop",
            "Position": {
              "x": 51.1921,
              "y": 21.9913,
              "z": -0.0163
            },
            "Rotation": {
              "x": 0.0,
              "y": 268.4177,
              "z": 0.0
            },
            "Scale": {
              "x": 1.2411,
              "y": 1.2411,
              "z": 1.2411
            },
            "MapProp": {
              "Type": 2,
              "Color": "FFFFFFFF",
              "Mirror": true,
              "Material": 0
            },
            "PropModel": {
              "Model": "SM_Prop_Sandbag_Wall_03"
            }
          },
          {
            "Prefab": "mapprop",
            "Position": {
              "x": 19.4734,
              "y": 20.8689,
              "z": 23.3643
            },
            "Rotation": {
              "x": 0.0,
              "y": 0.0,
              "z": 0.0
            },
            "Scale": {
              "x": 1.0,
              "y": 1.0,
              "z": 1.0
            },
            "MapProp": {
              "Type": 1,
              "Color": "FFFFFFFF",
              "Mirror": true,
              "Material": 0
            },
            "PropModel": {
              "Model": "AaSM_Prop_Crate_Wall_01"
            }
          },
          {
            "Prefab": "mapprop",
            "Position": {
              "x": 18.7003,
              "y": 33.2397,
              "z": -1.6407
            },
            "Rotation": {
              "x": 0.0,
              "y": 0.0,
              "z": 0.0
            },
            "Scale": {
              "x": 1.0,
              "y": 1.0,
              "z": 1.0
            },
            "MapProp": {
              "Type": 2,
              "Color": "FFFFFFFF",
              "Mirror": true,
              "Material": 0
            },
            "PropModel": {
              "Model": "AaSM_Prop_Crate_01"
            }
          },
          {
            "Prefab": "mapprop",
            "Position": {
              "x": 51.149,
              "y": 31.277,
              "z": 41.4064
            },
            "Rotation": {
              "x": 0.0,
              "y": 0.0,
              "z": 0.0
            },
            "Scale": {
              "x": 1.0,
              "y": 1.0,
              "z": 1.0
            },
            "MapProp": {
              "Type": 1,
              "Color": "FFFFFFFF",
              "Mirror": true,
              "Material": 0
            },
            "PropModel": {
              "Model": "SM_Env_PalmBush_03"
            }
          },
          {
            "Prefab": "mapprop",
            "Position": {
              "x": 53.2684,
              "y": 19.7444,
              "z": 31.7444
            },
            "Rotation": {
              "x": 0.0,
              "y": 0.0,
              "z": 9.9774
            },
            "Scale": {
              "x": 1.0,
              "y": 1.0,
              "z": 1.0
            },
            "MapProp": {
              "Type": 1,
              "Color": "FFFFFFFF",
              "Mirror": true,
              "Material": 0
            },
            "PropModel": {
              "Model": "SM_Env_Rock_Flat_Platform_Large_01"
            }
          },
          {
            "Prefab": "mapprop",
            "Position": {
              "x": 72.7316,
              "y": 19.7444,
              "z": 31.7444
            },
            "Rotation": {
              "x": 0.0,
              "y": 0.0,
              "z": 350.0226
            },
            "Scale": {
              "x": -1.0,
              "y": 1.0,
              "z": 1.0
            },
            "MapProp": {
              "Type": 1,
              "Color": "FFFFFFFF",
              "Mirror": true,
              "Material": 0
            },
            "PropModel": {
              "Model": "SM_Env_Rock_Flat_Platform_Large_01"
            }
          },
          {
            "Prefab": "protoshape",
            "Position": {
              "x": 22.8938,
              "y": 35.9667,
              "z": -6.0
            },
            "Rotation": {
              "x": 0.0,
              "y": 0.0,
              "z": 0.0
            },
            "Scale": {
              "x": 1.0,
              "y": 1.0,
              "z": 1.0
            },
            "MapProp": {
              "Type": 4,
              "Color": "FFFFFFFF",
              "Mirror": true,
              "Material": 3
            },
            "ProtoshapeEdit": {
              "Type": 3,
              "Points": [
                {
                  "x": -3.781458,
                  "y": -2.746117,
                  "uvx": 0.0,
                  "uvy": 0.0,
                  "Color": "FFFFFFFF"
                },
                {
                  "x": -3.779312,
                  "y": -1.907707,
                  "uvx": 0.0,
                  "uvy": 0.0,
                  "Color": "FFFFFFFF"
                },
                {
                  "x": -4.602531,
                  "y": -1.911545,
                  "uvx": 0.0,
                  "uvy": 0.0,
                  "Color": "FFFFFFFF"
                },
                {
                  "x": -4.606377,
                  "y": -2.734772,
                  "uvx": 0.0,
                  "uvy": 0.0,
                  "Color": "FFFFFFFF"
                }
              ],
              "DetailWidth": 1.0,
              "Depth": 0.0,
              "TextureScale": {
                "x": 1.0,
                "y": 1.0
              },
              "TextureOffset": {
                "x": 0.0,
                "y": 0.0
              }
            }
          },
          {
            "Prefab": "protoshape",
            "Position": {
              "x": 36.1042,
              "y": 44.0348,
              "z": -6.0
            },
            "Rotation": {
              "x": 0.0,
              "y": 0.0,
              "z": 0.0
            },
            "Scale": {
              "x": 1.0,
              "y": 1.0,
              "z": 1.0
            },
            "MapProp": {
              "Type": 4,
              "Color": "FFFFFFFF",
              "Mirror": true,
              "Material": 0
            },
            "ProtoshapeEdit": {
              "Type": 3,
              "Points": [
                {
                  "x": 1.353348,
                  "y": -3.079193,
                  "uvx": 0.0,
                  "uvy": 0.0,
                  "Color": "FFFFFFFF"
                },
                {
                  "x": 1.183762,
                  "y": -4.235062,
                  "uvx": 0.0,
                  "uvy": 0.0,
                  "Color": "FFFFFFFF"
                },
                {
                  "x": 0.804417,
                  "y": -4.324318,
                  "uvx": 0.0,
                  "uvy": 0.0,
                  "Color": "FFFFFFFF"
                },
                {
                  "x": 0.849045,
                  "y": -3.14167,
                  "uvx": 0.0,
                  "uvy": 0.0,
                  "Color": "FFFFFFFF"
                }
              ],
              "DetailWidth": 1.0,
              "Depth": 0.0,
              "TextureScale": {
                "x": 1.0,
                "y": 1.0
              },
              "TextureOffset": {
                "x": 0.0,
                "y": 0.0
              }
            }
          },
          {
            "Prefab": "protoshape",
            "Position": {
              "x": 48.7483,
              "y": 26.3008,
              "z": -6.0
            },
            "Rotation": {
              "x": 0.0,
              "y": 0.0,
              "z": 0.0
            },
            "Scale": {
              "x": 1.0,
              "y": 1.0,
              "z": 1.0
            },
            "MapProp": {
              "Type": 4,
              "Color": "FFFFFFFF",
              "Mirror": true,
              "Material": 0
            },
            "ProtoshapeEdit": {
              "Type": 3,
              "Points": [
                {
                  "x": 1.314522,
                  "y": -3.092842,
                  "uvx": 0.0,
                  "uvy": 0.0,
                  "Color": "FFFFFFFF"
                },
                {
                  "x": 1.223892,
                  "y": -4.147848,
                  "uvx": 0.0,
                  "uvy": 0.0,
                  "Color": "FFFFFFFF"
                },
                {
                  "x": 0.784699,
                  "y": -4.294247,
                  "uvx": 0.0,
                  "uvy": 0.0,
                  "Color": "FFFFFFFF"
                },
                {
                  "x": 0.847435,
                  "y": -3.169529,
                  "uvx": 0.0,
                  "uvy": 0.0,
                  "Color": "FFFFFFFF"
                }
              ],
              "DetailWidth": 1.0,
              "Depth": 0.0,
              "TextureScale": {
                "x": 1.0,
                "y": 1.0
              },
              "TextureOffset": {
                "x": 0.0,
                "y": 0.0
              }
            }
          },
          {
            "Prefab": "respawn weapon",
            "Position": {
              "x": 53.5037,
              "y": 22.488,
              "z": 0.0
            },
            "Rotation": {
              "x": 0.0,
              "y": 0.0,
              "z": 0.0
            },
            "Scale": {
              "x": 1.0,
              "y": 1.0,
              "z": 1.0
            }
          },
          {
            "Prefab": "respawn grenadespack",
            "Position": {
              "x": 20.5737,
              "y": 21.5958,
              "z": 0.0
            },
            "Rotation": {
              "x": 0.0,
              "y": 0.0,
              "z": 0.0
            },
            "Scale": {
              "x": 1.0,
              "y": 1.0,
              "z": 1.0
            }
          },
          {
            "Prefab": "respawn ammopack",
            "Position": {
              "x": 19.3776,
              "y": 21.6769,
              "z": 0.0
            },
            "Rotation": {
              "x": 0.0,
              "y": 0.0,
              "z": 0.0
            },
            "Scale": {
              "x": 1.0,
              "y": 1.0,
              "z": 1.0
            }
          },
          {
            "Prefab": "respawn medkit",
            "Position": {
              "x": 52.1205,
              "y": 33.6948,
              "z": 0.0
            },
            "Rotation": {
              "x": 0.0,
              "y": 0.0,
              "z": 0.0
            },
            "Scale": {
              "x": 1.0,
              "y": 1.0,
              "z": 1.0
            }
          },
          {
            "Prefab": "respawn grenadespack",
            "Position": {
              "x": 42.5897,
              "y": 11.2846,
              "z": 0.0
            },
            "Rotation": {
              "x": 0.0,
              "y": 0.0,
              "z": 0.0
            },
            "Scale": {
              "x": 1.0,
              "y": 1.0,
              "z": 1.0
            }
          },
          {
            "Prefab": "respawn medkit",
            "Position": {
              "x": 53.977,
              "y": 15.3746,
              "z": 0.0
            },
            "Rotation": {
              "x": 0.0,
              "y": 0.0,
              "z": 0.0
            },
            "Scale": {
              "x": 1.0,
              "y": 1.0,
              "z": 1.0
            }
          },
          {
            "Prefab": "mapprop",
            "Position": {
              "x": 44.2006,
              "y": 14.291,
              "z": 0.0
            },
            "Rotation": {
              "x": 0.0,
              "y": 0.0,
              "z": 0.0
            },
            "Scale": {
              "x": 1.5212,
              "y": 1.5212,
              "z": 1.5212
            },
            "MapProp": {
              "Type": 2,
              "Color": "817E40FF",
              "Mirror": true,
              "Material": 0
            },
            "PropModel": {
              "Model": "FogOverlay"
            }
          }
        ]
      }
    }
  },
  "Meta": {
    "Description": "vanilla",
    "Thumbnail": "",
    "Author": "MM",
    "Version": "1",
    "Game": "Soldat2",
    "GameVersion": "0.8.40"
  }
}