{
  "Objects": {
    "Knife": {
      "Throwable": {
        "MinimumContactVelocityAfterCollision": 9999.0
      }
    }
  },
  "Meta": {
    "Description": "Knifes don't get pushed around by explosions",
    "Author": "noerw",
    "Version": "1.0",
    "Game": "Soldat2",
    "GameVersion": "0.8.60"
  }
}
