{
  "Objects": {
    "Rules": {
      "HandleBases": {
        "ReverseFlags": true
      }
    }
  },
  "Meta": {
    "Description": "Reverses the flags but leaves spawns",
    "Thumbnail": "",
    "Author": "MM",
    "Version": 1.0
  }
}