{
  "Objects": {
    "Core Settings": {
   	  "GameplaySettings": {
        "DamageScale": 2.2
      },
      "CameraSettings": {
        "MaxPlayFieldOfView": 4.5,
        "FollowLerp": 1.0,
        "AimScreenScale": {
          "x": 0.1,
          "y": 0.1
        },        
      },
    },
    "Gostek": {
      "GostekMovement": {
      	"StunAllowed": true,
        "MaxVelocity": 19.5,
        "MaxJetsVelocity": 19.0,
        "GroundDrag": 0.017,        
        "MoveForce": 12.0,
        "AirForce": 5.5,
        "RollForce": 30.0,
        "AirRollForce": 16.0,
        "UpRollForce": 36.0,
        "CrouchForce": 44.0,
        "BackFlipForce": 79.0,
        "JumpUpForce": 73.0,
        "JumpSideForce": 43.0,
        "ClimbForceModifier": 0.9
      },
      "GostekJets": {
        "JetsAllowed": false,
        "JetsUsage": 0.045,
      }      
    },
    "Rules": {
      "FogOfWar": {},
      "Handicaps": {
        "SpawnHealth": 1.0,
        "InvincibleAfterSpawnDuration": 2.0
      },      
  
    }    
  },
  "Meta": {
    "Description": "MM's Ultra Tactical Mode",
    "Author": "MM",
    "Version": "N/A",
    "Game": "Soldat2",
    "GameVersion": "0.8.0"
  }
}