{
  "Meta": {
    "Description": "Be careful.",
    "Thumbnail": "",
    "Author": "noerw",
    "Version": "1",
    "Game": "Soldat2",
    "GameVersion": "0.8.46"
  },
  "Objects": {
    "Core Settings": {
      "GameplaySettings": {
        "FriendlyFire": true,
        "FriendlyCollisions": false, // doesnt help with FF headbutts :(
      },
    },
  }
}
