{
  "Objects": {
    "Rules": {
      "SpawnLoadout": {
        "AmmoClips": 0,
        "AmmoClipsMax": 2
      },
      "RandomDrops": {
        "+Drops": [          
          {
            "Prefab": "AmmoPack",
            "Timeout": 15,
            "Probability": 1.0,
            "Amount": 1,
            "Floater": false
          }
        ]
      },
      "DeathDrops": {
        "+Drops": [
          {
            "Prefab": "AmmoPack",
            "Timeout": 12,
            "Probability": 0.9,
            "Amount": 0.35,
            "Floater": false
          }          
        ],        
      }      
    }
  },
  "Meta": {
    "Description": "Weapons have limited ammo + ammo pickups",
    "Thumbnail": "",
    "Author": "MM",
    "Version": 1.0
  }
}